…
데이터 가공 결과, 지역을 중심으로 하여 지역별 총합과 지역별 여행 횟수 비율을 나타내는 변수가 생성되었음을 확인할 수 있다.

``` r
job2
```

    ## # A tibble: 85 x 7
    ## # Groups:   area [17]
    ##     area       sta2 year_2014 year_2015 year_2016 tot_area     ratio
    ##    <chr>      <chr>     <dbl>     <dbl>     <dbl>    <dbl>     <dbl>
    ##  1  강원   전문관리    971986    843097    925180 19555768 14.012556
    ##  2  강원       사무   2500430   2850268   2815579 19555768 41.758917
    ##  3  강원 서비스판매   1581702   1734768   1649393 19555768 25.393342
    ##  4  강원     농어업    452428    472436    414140 19555768  6.847105
    ##  5  강원   기능노무    870346    786508    687507 19555768 11.988079
    ##  6  경기   전문관리   1172266   1138064   1282558 25747708 13.954205
    ##  7  경기       사무   2979533   3451624   3562040 25747708 38.811987
    ##  8  경기 서비스판매   2043061   2456897   2487244 25747708 27.137181
    ##  9  경기     농어업    589496    545427    806358 25747708  7.539626
    ## 10  경기   기능노무   1114156   1035519   1083465 25747708 12.557001
    ## # ... with 75 more rows
…
